IS415 - GAA - Take-home Exercise 2[ANALYSIS]: Application of Spatial and Spatio-temporal Analysis Methods to Discover the Distribution of Dengue Fever in Tainan City, Taiwan
…
HCSA <- wm_idw %>% 
  mutate(local_Gi = local_gstar_perm(
    case_count, nb, wt, nsim = 99),
         .before = 1) %>%
  unnest(local_Gi)
HCSA

Simple feature collection with 258 features and 21 fields
Geometry type: POLYGON
Dimension:     XY
Bounding box:  xmin: 120.0627 ymin: 22.89401 xmax: 120.2925 ymax: 23.09144
Geodetic CRS:  TWD97
# A tibble: 258 × 22
   gi_star    e_gi   var_gi p_value   p_sim p_folded_sim skewness kurtosis nb   
     <dbl>   <dbl>    <dbl>   <dbl>   <dbl>        <dbl>    <dbl>    <dbl> <nb> 
 1   1.44  0.00401  1.99e-6   1.41  1.59e-1         0.2      0.1     0.453 <int>
 2   1.05  0.00414  2.00e-6   0.904 3.66e-1         0.46     0.23    0.383 <int>
 3   1.39  0.00355  1.75e-6   1.80  7.11e-2         0.16     0.08    0.251 <int>
 4   0.845 0.00398  1.50e-6   0.738 4.60e-1         0.48     0.24    0.350 <int>
 5  -0.658 0.00378  1.64e-6  -0.627 5.31e-1         0.58     0.29    0.639 <int>
 6   2.17  0.00487  1.99e-6   1.39  1.64e-1         0.2      0.1     0.720 <int>
 7  -0.736 0.00370  2.37e-6  -0.657 5.11e-1         0.56     0.28    0.445 <int>
 8   2.46  0.00448  1.69e-6   1.95  5.17e-2         0.1      0.05    0.526 <int>
 9   3.00  0.00437  1.57e-6   3.14  1.71e-3         0.02     0.01    0.223 <int>
10   3.68  0.00428  1.03e-6   3.51  4.56e-4         0.02     0.01    0.712 <int>
# ℹ 248 more rows
# ℹ 13 more variables: wts <list>, VILLCODE <chr>, COUNTYNAME <chr>,
#   TOWNNAME <chr>, VILLNAME <chr>, VILLENG <chr>, COUNTYID <chr>,
#   COUNTYCODE <chr>, TOWNID <chr>, TOWNCODE <chr>, NOTE <chr>,
#   case_count <dbl>, geometry <POLYGON [°]>
…
